#FIG 3.2  Produced by xfig version 3.2.6a
Landscape
Center
Metric
A4
100.00
Single
-2
1200 2
2 1 0 1 0 7 50 -1 -1 0.000 0 0 -1 0 0 2
	 450 630 4050 630
2 1 0 1 0 7 50 -1 -1 0.000 0 0 -1 0 0 2
	 450 810 4050 810
2 1 0 1 0 7 50 -1 -1 0.000 0 0 -1 0 0 2
	 450 990 4050 990
2 1 0 1 0 7 50 -1 -1 0.000 0 0 -1 0 0 2
	 450 1350 4050 1350
2 1 0 1 0 7 50 -1 -1 0.000 0 0 -1 0 0 2
	 450 1530 4050 1530
2 1 0 1 0 7 50 -1 -1 0.000 0 0 -1 0 0 2
	 450 1710 4050 1710
2 1 0 1 0 7 50 -1 -1 0.000 0 0 -1 0 0 2
	 450 1170 4050 1170
2 1 0 1 0 7 50 -1 -1 0.000 0 0 -1 0 0 2
	 2250 450 2250 1890
2 1 0 1 0 7 50 -1 -1 0.000 0 0 -1 0 0 2
	 3150 450 3150 1170
2 2 0 1 0 0 52 -1 20 0.000 0 0 -1 0 0 5
	 495 495 4095 495 4095 1935 495 1935 495 495
2 2 0 1 0 11 51 -1 36 0.000 0 0 7 0 0 5
	 4050 450 450 450 450 1890 4050 1890 4050 450
2 2 0 1 0 0 52 -1 20 0.000 0 0 -1 0 0 5
	 495 2295 4095 2295 4095 2475 495 2475 495 2295
2 1 0 1 0 7 50 -1 -1 0.000 0 0 -1 0 0 2
	 2250 2250 2250 2430
2 2 0 1 0 11 51 -1 36 0.000 0 0 7 0 0 5
	 4050 2250 450 2250 450 2430 4050 2430 4050 2250
4 0 0 50 -1 16 8 0.0000 4 135 180 495 405 31\001
4 0 0 50 -1 16 8 0.0000 4 135 180 2295 405 15\001
4 0 0 50 -1 16 8 0.0000 4 135 90 3195 405 7\001
4 2 0 50 -1 16 8 0.0000 4 135 180 2205 405 16\001
4 2 0 50 -1 16 8 0.0000 4 135 90 3105 405 8\001
4 2 0 50 -1 16 8 0.0000 4 135 90 4005 405 0\001
4 1 0 50 -1 16 8 0.0000 4 135 180 2700 585 AH\001
4 1 0 50 -1 16 8 0.0000 4 135 180 2700 765 BH\001
4 1 0 50 -1 16 8 0.0000 4 135 180 2700 1125 DH\001
4 1 0 50 -1 16 8 0.0000 4 135 180 3150 1305 BP\001
4 1 0 50 -1 16 8 0.0000 4 135 180 3150 1485 SI\001
4 1 0 50 -1 16 8 0.0000 4 135 180 3150 1665 DI\001
4 1 0 50 -1 16 8 0.0000 4 135 180 3150 1845 SP\001
4 1 0 50 -1 16 8 0.0000 4 135 180 3600 585 AL\001
4 1 0 50 -1 16 8 0.0000 4 135 180 3600 765 BL\001
4 1 0 50 -1 16 8 0.0000 4 135 180 3600 945 CL\001
4 1 0 50 -1 16 8 0.0000 4 135 180 3600 1125 DL\001
4 1 0 50 -1 16 8 0.0000 4 135 180 2700 945 CH\001
4 1 0 50 -1 16 8 0.0000 4 135 270 135 585 EAX\001
4 1 0 50 -1 16 8 0.0000 4 135 270 135 765 EBX\001
4 1 0 50 -1 16 8 0.0000 4 135 270 135 945 ECX\001
4 1 0 50 -1 16 8 0.0000 4 135 270 135 1125 EDX\001
4 1 0 50 -1 16 8 0.0000 4 135 270 135 1305 EBP\001
4 1 0 50 -1 16 8 0.0000 4 135 270 135 1485 ESI\001
4 1 0 50 -1 16 8 0.0000 4 135 270 135 1665 EDI\001
4 1 0 50 -1 16 8 0.0000 4 135 270 135 1845 ESP\001
4 1 0 50 -1 16 8 0.0000 4 135 630 135 405 32 bits\001
4 1 0 50 -1 16 8 0.0000 4 135 180 4410 765 BX\001
4 1 0 50 -1 16 8 0.0000 4 135 180 4410 945 CX\001
4 1 0 50 -1 16 8 0.0000 4 135 180 4410 1125 DX\001
4 1 0 50 -1 16 8 0.0000 4 135 630 4410 405 16 bits\001
4 1 0 50 -1 16 8 0.0000 4 135 180 4410 585 AX\001
4 1 0 50 -1 16 8 0.0000 4 135 270 135 2385 EIP\001
4 1 0 50 -1 16 8 0.0000 4 135 180 3150 2385 IP\001
